{
  "project_info": {
    "project_number": "514502441759",
    "project_id": "wingroupglobal-1b406",
    "storage_bucket": "wingroupglobal-1b406.appspot.com"
  },
  "client": [
    {
      "client_info": {
        "mobilesdk_app_id": "1:514502441759:android:156c0e1e4679c1dcb2ce2a",
        "android_client_info": {
          "package_name": "com.wingroup"
        }
      },
      "oauth_client": [],
      "api_key": [
        {
          "current_key": "AIzaSyD3AmXpRKRCUAiof4zu95EUzsXHTRhhNPc"
        }
      ],
      "services": {
        "appinvite_service": {
          "other_platform_oauth_client": []
        }
      }
    }
  ],
  "configuration_version": "1"
}